{
    "version": "1.0.0",
    "lockInfo" : {
        "s_status":"tid=\\d+ (.*)",
        "s_waiting":"- waiting to lock <(.*)>",
        "s_heldBy":"held by thread (\\d+)",
        "s_locked":"- locked <(.*)>",
        "s_binderTrans":"at android\\.os\\.(BinderProxy)\\.transact",
        "s_binderFull":"os\\.Binder\\.(blockUntilThreadAvailable)",
        "s_waitSelf":"- waiting on <(.*)>"
    },
    "file1":{
        "path":"/data/log/dropbox/",
        "pattern":".*?(app_anr|system_server_anr)@[0-9]{13}\\.txt(\\.gz)?",
        "featureid":"070110000",
        "segmentType":"Double",
        "firstSeg":["BasicParam.s_process", "main"],
        "segStack":["^\\s+at\\s+|^\\s+-\\s\\w", "^\\s+at\\s+|^\\s+-\\s\\w"],
        "command":[
            {"name":"BasicParam", "source":"Process: ", "s_process":"Process: (.*)"},
            {"name":"BasicParam", "source":"PID: ", "s_pid":"PID: (.*)"},
            {"name":"BasicParam", "source":"UID: ", "s_uid":"UID: (.*)"},
            {"name":"BasicParam", "source":"Flags: ", "s_flag":"Flags: (.*)"},
            {"name":"BasicParam", "source":"Package: ", "s_package":"Package: ([\\w\\.]+)", "s_appversion":"^Package: [^\\(]*\\((.*)\\)$"},
            {"name":"BasicParam", "source":"APPVMTYPE: ", "s_appvmtype":"APPVMTYPE: (.*)"},
            {"name":"BasicParam", "source":"SYSVMTYPE: ", "s_sysvmtype":"SYSVMTYPE: (.*)"},
            {"name":"BasicParam", "source":"Foreground: ", "s_foreground":"Foreground: (.*)"},
            {"name":"BasicParam", "source":"Activity: ", "s_activity":"Activity: (.*)"},
            {"name":"BasicParam", "source":"Subject: ", "s_subject":"Subject: (.*)"},
            {"name":"BasicParam", "source":"Lifetime: ", "s_lifetime":"Lifetime: (.*)"},
            {"name":"BasicParam", "source":"Temp: ", "s_temp":"shellFront: (\\d+)"},
            {"name":"BasicParam", "source":"Freq: ", "s_freq":"Freq: (.*),", "s_ipa":"IPAValue: (\\d+)"},
            {"name":"BasicParam", "source":"Build: ", "s_build":"Build: (.*)"},
            {"name":"BasicParam", "source":"@R@\\d+% \\d+/([^:]+):.*", "s_topcpu":"\\d+% \\d+/([^:]+):.*"},
            {"name":"BasicParam", "source":"TOTAL:", "s_totalcpu":"(\\d[\\.0-9]+)% TOTAL:", "s_iowait":".* TOTAL: .* (\\d[\\.0-9]+)% iowait .*"},
            {"name":"BasicParam", "source":"% &@&BasicParam.s_pid", "s_faultcpu":"\\s+([0-9|\\.]+%)"}
        ],
        "segment":[
            {"name":"DoubleCmd", "source":"----- pid ", "num":2, "s_id":"^----- pid (\\d+) at", "s_name":"^Cmd line: (.*)"},
            {"name":"SingleCmd", "source":" prio=@&@ tid=", "num":3, "s_id":"tid=(\\d+) ", "s_name":"^\"(.*)\" ", "s_sysTid":"sysTid=(\\d+) "},
            {"name":"BinderCmd", "source":"----- binder transactions", "s_name":"(binder) transactions"}
        ]
    },
    "file4":{
        "path":"/data/log/dropbox/",
        "pattern":".*?app_crash@[0-9]{13}\\.txt(\\.gz)?",
        "featureid":"070110010",
        "command":[
            {"name":"BasicParam", "source":"Process: ", "s_process":"Process: (.*)"},
            {"name":"BasicParam", "source":"PID: ", "s_pid":"PID: (.*)"},
            {"name":"BasicParam", "source":"UID: ", "s_uid":"UID: (.*)"},
            {"name":"BasicParam", "source":"Flags: ", "s_flag":"Flags: (.*)"},
            {"name":"BasicParam", "source":"Package: ", "s_package":"Package: ([\\w\\.]+)", "s_appversion":"^Package: [^\\(]*\\((.*)\\)$"},
            {"name":"BasicParam", "source":"Trace-Id: ", "s_traceid":"Trace-Id: (.*)"},
            {"name":"BasicParam", "source":"SYSVMTYPE: ", "s_sysvmtype":"SYSVMTYPE: (.*)"},
            {"name":"BasicParam", "source":"APPVMTYPE: ", "s_appvmtype":"APPVMTYPE: (.*)"},
            {"name":"BasicParam", "source":"Foreground: ", "s_foreground":"Foreground: (.*)"},
            {"name":"BasicParam", "source":"Lifetime: ", "s_lifetime":"Lifetime: (.*)"},
            {"name":"BasicParam", "source":"Build: ", "s_build":"Build: (.*)"},
            {"name":"BasicParam", "source":"@R@\\d+% \\d+/([^:]+):.*", "s_topcpu":"\\d+% \\d+/([^:]+):.*"},
            {"name":"BasicParam", "source":"@R@@exceptionlist@", "s_reason":"@exceptionlist@"},
            {"name":"BasicParam", "source":"at ", "s_trace":"&all_trace&^\\s+at (.*)\\)|\\s*Caused by:(.*)|\\s+Suppressed:(.*)|^java.*"},
            {"name":"BasicParam", "source":"-mainthread@|@-loghandler", "s_mainthread":".*\\-(mainthread)|.*\\-(loghandler)"}
        ]
    },
    "file5":{
        "path":"/data/log/dropbox/",
        "pattern":".*?(TOMBSTONE|native_crash)@[0-9]{13}\\.txt(\\.gz)?",
        "skip":100,
        "featureid":"070110020",
        "command":[
            {"name":"BasicParam", "source":">>> @&@ <<<", "s_process":">>> (.*) <<<", "s_name":"name: (.*?)[: ]"},
            {"name":"BasicParam", "source":"Build: ", "s_build":"Build: (.*)"},
            {"name":"BasicParam", "source":"Flags: ", "s_flag":"Flags: (.*)"},
            {"name":"BasicParam", "source":"Package: ", "s_package":"Package: ([\\w\\.]+)", "s_appversion":"^Package: [^\\(]*\\((.*)\\)$"},
            {"name":"BasicParam", "source":"Trace-Id: ", "s_traceid":"Trace-Id: (.*)"},
            {"name":"BasicParam", "source":"Hardware: ", "s_hardware":"Hardware: (.*)"},
            {"name":"BasicParam", "source":"Build fingerprint: ", "s_androidvision":"\\/(\\w+:\\d+)[./]"},
            {"name":"BasicParam", "source":"SYSVMTYPE: ", "s_sysvmtype":"SYSVMTYPE: (.*)"},
            {"name":"BasicParam", "source":"APPVMTYPE: ", "s_appvmtype":"APPVMTYPE: (.*)"},
            {"name":"BasicParam", "source":"Foreground: ", "s_foreground":"Foreground: (.*)"},
            {"name":"BasicParam", "source":"pid: ", "s_pid":"pid: (.*),"},
            {"name":"BasicParam", "source":"Abort message: ", "s_abortmsg":"Abort message: (.*)"},
            {"name":"BasicParam", "source":"uid: ", "s_uid":"uid: ([0-9]+)"},
            {"name":"SignalParam", "source":"signal ","s_sigmsg":"signal ([0-9]+).*","s_sicode":"code ([0-9]+).*"},
            {"name":"ExceptionReason", "depend":"SignalParam", "source":"Cause: ","s_cause":"Cause:(.*)"},
            {"name":"MainCallTrace", "source":"backtrace:", "s_trace":"&all_trace&\\s+#\\d+"}
        ]
    },
    "file6":{
        "path":"/data/log/dropbox/",
        "pattern":".*?(system_server_crash|SYSTEM_TOMBSTONE)@[0-9]{13}\\.txt(\\.gz)?",
        "featureid":"070100000",
        "command":[
            {"name":"BasicParam", "source":"Process: ", "s_process":"Process:\\s(.*)"},
            {"name":"BasicParam", "source":"SYSVMTYPE: ", "s_sysvmtype":"SYSVMTYPE: (.*)"},
            {"name":"BasicParam", "source":"@R@@exceptionlist@", "s_reason":"@exceptionlist@"},
            {"name":"BasicParam", "source":"Abort message: ", "s_abortmsg":"Abort message: (.*)"},
            {"name":"SignalParam", "source":"signal ","s_sigmsg":"(signal [0-9]+).*","s_sicode":"(code [0-9]+).*"},
            {"name":"MainCallTrace", "source":"@R@^\\s+at (.*)\\(.*", "s_trace":"&all_trace&^\\s+at (.*)\\)"}
        ]
    },
    "file7":{
        "path":"/data/log/dropbox/",
        "pattern":".*?system_server_watchdog@[0-9]{13}\\.txt(\\.gz)?",
        "featureid":"070100010",
        "segmentType":"Double",
        "firstSeg":["BasicParam.s_process", "BasicParam.s_thread"],
        "segStack":["^\\s+at\\s+|^\\s+-\\s\\w", "^\\s+at\\s+|^\\s+-\\s\\w"],
        "command":[
            {"name":"BasicParam", "source":"Process: ", "s_process":"Process: (.*)"},
            {"name":"BasicParam", "source":"Subject: Blocked in monitor@|@Subject: Blocked in handler on", "s_block_reason":"Blocked in (.*)\\(", "s_thread":"\\((.*?)\\)"},
            {"name":"BasicParam", "source":"Build: ", "s_build":"Build: (.*)"}
        ],
        "segment":[
            {"name":"DoubleCmd", "source":"----- pid ", "num":2, "s_id":"^----- pid (\\d+) at", "s_name":"^Cmd line: (.*)"},
            {"name":"SingleCmd", "source":" prio=@&@ tid=", "num":3, "s_id":"tid=(\\d+) ", "s_name":"^\"(.*)\" ", "s_sysTid":"sysTid=(\\d+) "},
            {"name":"BinderCmd", "source":"----- binder transactions", "s_name":"(binder) transactions"}
        ]
    },
    "file8":{
        "path":"/data/hisi_logs/",
        "pattern":"\\d{14}-\\d{8}/ap_log/dmesg-ramoops-0",
        "featureid":"040100022",
        "segmentType":"Single",
        "firstSeg":["HungtaskParam.s_taskId"],
        "segStack":["\\w+\\+0x[0-9a-f]+/0x[0-9a-f]+", "Call trace:"],
        "command":[
            {"name":"HungtaskParam", "source":"blocked@&@is causing panic", "s_taskId":"[tT]ask.*:(\\d+).*is causing panic", "s_taskName":"[tT]ask (.*):.*is causing panic"}
        ],
        "segment":[
            {"name":"SingleCmd", "source":"khungtaskd@&@]hungtask:name=", "num":1, "s_id":",PID=(\\d+),", "s_name":"hungtask:name=(.*),PID="}
        ]
    },
    "file9":{
        "path":"/data/hisi_logs/",
        "pattern":"\\d{14}-\\d{8}/ap_log/dmesg-ramoops-0",
        "featureid":"040100021",
        "segmentType":"Single",
        "firstSeg":["NocTrace.s_cpu"],
        "segStack":["\\w+\\+0x[0-9a-f]+/0x[0-9a-f]+", "el1_irq+0"],
        "command":[
            {"name":"BasicParam", "source":"Unhandled fault:@|@Unable to handle kernel@|@kernel BUG at@|@BUG: failure at@|@Bad mode in@|@DPM device timeout@|@invoked oom-killer@|@Synchronous External Abort:@|@,init]potentially unexpected fatal signal@|@Internal error:@|@NoC Error Probe:@|@mali gpu: Unhandled Page@|@CFI failure", "s_cause":"pid:\\d+,cpu\\d+,.*\\]([A-Za-z].*)", "s_pname":",cpu[0-9],(.*?)[,:\\]]", "s_noc":"(NoC Error)"},
            {"name":"BasicParam", "depend":"BasicParam.s_pname", "source":"PC is at ", "s_f1":"PC is at ([^\\+ ]+.*)"},
            {"name":"NocTrace", "depend":"BasicParam.s_noc", "source":"err_code=", "s_errcode":"\\[(err_code=\\d+)\\]"},
            {"name":"NocTrace", "depend":"BasicParam.s_noc", "source":"init_flow=", "s_master":"\\[init_flow=\\d+\\]: (.*)"},
            {"name":"NocTrace", "depend":"BasicParam.s_noc", "source":"target_flow=", "s_slave":"\\[target_flow=\\d+\\]: (.*)"},
            {"name":"NocTrace", "depend":"BasicParam.s_noc", "source":"adjusted ADDR", "s_address":"adjusted.* = (.*)"},
            {"name":"NocTrace", "depend":"BasicParam.s_noc", "source":"USER_SIGNAL =", "s_user_signal":"USER_SIGNAL = 0x[0-9a-z]+ (.*)", "s_cpu":"\\(MID: AP_CPU(\\d+)"},
            {"name":"NocTrace", "depend":"BasicParam.s_noc", "source":"sec_val =", "s_security":"(sec_val = 0x[0-9a-f]+)"},
            {"name":"MainCallTrace", "depend":"BasicParam", "source":"Call trace:", "s_trace":"&all_trace&[0-9a-zA-Z_]+\\+0x[0-9a-f]+/0x[0-9a-f]+"}
        ],
        "segment":[
            {"name":"SingleCmd", "source":"]CPU@&@: stopping", "num":1, "s_id":"\\]CPU(\\d+): stopping", "s_name":"\\](CPU\\d+): stopping"}
        ]
    },
    "file10":{
        "path":"/log/reliability/boot_fail/uploading/",
        "pattern":"bootfail_\\d{14}_0(x|X)[0-9a-zA-Z]{1,12}/bootFail_info.txt",
        "featureid":"070150000",
        "command":[
            {"name":"BasicParam", "source":"SpaceLeftOnData:", "s_leftSpace":"SpaceLeftOnData:\\d+MB\\s\\[(\\d+)%\\]"},
            {"name":"BasicParam", "source":"time:0x", "s_bootfailtime":"time:(0x\\d+)"},
            {"name":"BasicParam", "source":"bootFailErrno:0x", "s_bootfailErrno":"bootFailErrno:(0x[0-9a-f]+)"},
            {"name":"BasicParam", "source":"boot_stage:0x", "s_bootErrStage":"boot_stage:(0x[0-9a-f]+)"},
            {"name":"BasicParam", "source":"isSystemRooted:", "s_rootOrNot":"isSystemRooted:(\\d)"},
            {"name":"BasicParam", "source":"isUserPerceptible:", "s_isUserPerceptible":"isUserPerceptible:(\\d)"},
            {"name":"BasicParam", "source":"bootup_time:", "s_bootupTime":"bootup_time:([1-9]\\d+)S"},
            {"name":"BasicParam", "source":"bootFailDetail:", "s_bootFailDetail":"bootFailDetail:(.*)"},
            {"name":"BootupStage", "depend":"BasicParam.s_bootupTime", "source":"@R@start:\\s+native_stage_init_start.*elapse:(\\d+)s", "s_stg1":"start:.*elapse:(\\d+)s"},
            {"name":"BootupStage", "depend":"BasicParam.s_bootupTime", "source":"@R@start:\\s+framework_stage_phase_wait_for_default_display.*elapse:(\\d+)s", "s_stg2":"start:.*elapse:(\\d+)s"},
            {"name":"BootupStage", "depend":"BasicParam.s_bootupTime", "source":"@R@start:\\s+framework_stage_phase_lock_settings_ready.*elapse:(\\d+)s", "s_stg3":"start:.*elapse:(\\d+)s"},
            {"name":"BootupStage", "depend":"BasicParam.s_bootupTime", "source":"@R@start:\\s+framework_stage_phase_system_services_ready.*elapse:(\\d+)s", "s_stg4":"start:.*elapse:(\\d+)s"},
            {"name":"BootupStage", "depend":"BasicParam.s_bootupTime", "source":"@R@start:\\s+framework_stage_phase_activity_manager_ready.*elapse:(\\d+)s", "s_stg5":"start:.*elapse:(\\d+)s"},
            {"name":"BootupStage", "depend":"BasicParam.s_bootupTime", "source":"@R@start:\\s+framework_stage_phase_third_party_apps_can_start.*elapse:(\\d+)s", "s_stg6":"start:.*elapse:(\\d+)s"},
            {"name":"BootupStage", "depend":"BasicParam.s_bootupTime", "source":"@R@start:\\s+framework_stage_phase_boot_completed.*elapse:(\\d+)s", "s_stg7":"start:.*elapse:(\\d+)s"}
        ]
    },
    "file11":{
        "path":"/log/reliability/boot_fail/uploading/",
        "pattern":"bootfail_\\d{14}_0(x|X)[0-9a-zA-Z]{1,12}/recovery_info.txt",
        "featureid":"070150001",
        "command":[
            {"name":"BasicParam", "source":"@R@rcvMethod:(\\d+)", "s_rcvMethod":"rcvMethod:(\\d+)"},
            {"name":"BasicParam", "source":"@R@rcvResult:(\\d+)", "s_rcvResult":"rcvResult:(\\d+)"}
        ]
    },
    "file12":{
        "path":"/data/hisi_logs/",
        "pattern":"\\d{14}-\\d{8}/cp_log/reset.log",
        "featureid":"040120000,040100090",
        "command":[
            {"name":"BasicParam", "source":"brief:", "s_f1":"brief:(.*)"},
            {"name":"BasicParam", "source":"task_name:", "s_f2":"task_name:(.*)"},
            {"name":"BasicParam", "source":"modid:", "s_f3":"modid:(.*)"}
        ]
    },
    "file13":{
        "path":"/data/hisi_logs/running_trace/teeos_logs/last_teemsg",
        "pattern":"",
        "featureid":"040120030",
        "command":[
            {"name":"BasicParam", "source":"Crash Task Name = ", "s_pname":"Crash Task Name = (.*)"},
            {"name":"BasicParam", "source":"========== The PC ", "s_f1":"========== The PC (.*)"}
        ]
    },
    "file14":{
        "path":"/data/log/reliability/xcollie",
        "pattern":"xcollie@\\d{1,13}.log",
        "featureid":"070140030",
        "command":[
            {"name":"BasicParam", "source":">>> @&@ <<<", "s_pname":">>> (.*) <<<", "s_reason":"[>>> .*/|>>> .*\\.]([a-zA-Z0-9\\.]+)[ <<<|@.*? <<<]"},
            {"name":"BasicParam", "source":"timeout tid:", "s_pid":"timeout tid: (\\d+)"},
            {"name":"BasicParam", "source":"timeout function:@|@timeout name:", "s_funcname":"timeout.*: (.*)"},
            {"name":"MainCallTrace", "source":"@R@(^tid = |sysTid=){1}&@&BasicParam.s_pid", "s_maintrace":"&all_trace&\\s+\\S* #\\d+ pc \\d+(.*)|\\s+at (.*)"},
            {"name":"CallTrace", "source":"kernel stack:", "s_calltrace":"&all_trace&xcollie: #\\d+: (.*)"}
        ]
    },
    "file15":{
        "path":"/log/reliability/boot_fail/uploading/",
        "pattern":"bootfail_\\d{14}_0(x|X)[0-9a-zA-Z]{1,12}/last_kmsg",
        "featureid":"070150002",
        "command":[
            {"name":"BasicParam", "source":"Unhandled fault:@|@Unable to handle kernel@|@kernel BUG at @|@BUG: failure at@|@Bad mode in @|@Internal error:", "s_cpuNum":"pid:\\d+,cpu(\\d+),", "s_subType":"pid:\\d+,cpu\\d+,.*\\](.*)"},
            {"name":"BasicParam", "depend":"BasicParam.s_cpuNum", "source":"PC is at ", "s_f1":"PC is at ([^\\+ ]+.*)"},
            {"name":"BasicParam", "depend":"BasicParam.s_cpuNum", "source":"LR is at ", "s_f2":"LR is at ([^\\+ ]+.*)"},
            {"name":"CallTrace", "depend":"BasicParam.s_cpuNum", "source":"Call trace:", "s_trace":"&all_trace&[0-9a-zA-Z_]+\\+0x[0-9a-f]+/0x[0-9a-f]+"},
            {"name":"OtherParam", "depend":"CallTrace", "source":"Code: ", "s_code":"Code:\\s(.*)\\s$"}
        ]
    },
    "file16":{
        "path":"/log/reliability/boot_fail/uploading/",
        "pattern":"bootfail_\\d{14}_0(x|X)[0-9a-zA-Z]{1,12}/tombstone_00",
        "featureid":"070150003",
        "command":[
            {"name":"BasicParam", "source":">>> @&@ <<<", "s_subType":">>> (.*) <<<"},
            {"name":"SignalParam", "source":"signal ","s_sig":"signal\\s([0-9]+).*"},
            {"name":"ExceptionReason", "depend":"SignalParam", "source":"Cause: ","s_cause":"Cause:(.*)"},
            {"name":"MainCallTrace", "source":"backtrace:", "s_trace":"&all_trace&\\s+#\\d+"}
        ]
    },
    "file17":{
        "path":"/data/hisi_logs/",
        "pattern":"\\d{14}-\\d{8}/ap_log/dmesg-ramoops-0",
        "featureid":"040100030",
        "command":[
            {"name":"BasicParam", "source":"fiq triggered by: Watchdog", "s_fiq":"(.*)"},
            {"name":"BasicParam", "depend":"BasicParam.s_fiq","source":"PC is at ", "s_f1":"PC is at ([^\\+ ]+.*)", "s_pname":"cpu[0-9],(.*?)[,:\\]]"},
            {"name":"MainCallTrace", "depend":"BasicParam.s_fiq", "source":"Call trace:", "s_trace":"&all_trace&[0-9a-zA-Z_]+\\+0x[0-9a-f]+/0x[0-9a-f]+"}
        ]
    },
    "file18":{
        "path":"/data/hisi_logs/",
        "pattern":"\\d{14}-\\d{8}/sochifi_logs/hifi_ddr.bin",
        "featureid":"040120010",
        "command":[
            {"name":"BasicParam", "source":"panic addr", "s_panicAddr":"panic addr:(.*?),", "s_curPc":"cur_pc:(.*?),", "s_prePc":"pre_pc:(.*?),", "s_cause":"cause:(.*)"},
            {"name":"BasicParam", "source":"OM_FAULTINJECT_MsgMain", "s_f2":"(OM_FAULTINJECT_MsgMain)"}
        ]
    },
    "file19":{
        "path":"/data/hisi_logs/",
        "pattern":"\\d{14}-\\d{8}/codechifi_logs/codec_log.bin",
        "featureid":"040120011",
        "command":[
            {"name":"BasicParam", "source":"panic addr", "s_panicAddr":"panic addr:(.*?),", "s_curPc":"cur_pc:(.*?),", "s_prePc":"pre_pc:(.*?),", "s_cause":"cause:(.*)"},
            {"name":"BasicParam", "source":"exception_pointer start@|@bit1 count error", "s_f2":"\\:(.*exception_pointer start)", "s_f3":"(bit1 count error)"}
        ]
    },
    "file20":{
        "path":"/data/log/sensorhub-log/history.log",
        "pattern":"",
        "featureid":"040120020",
        "command":[
            {"name":"BasicParam", "source":"reason", "s_reason":"@last@reason \\[(.*?)\\],", "s_regs":"@last@regs \\[(pc.*,lr.*),fsr.*"}
        ]
    },
    "file21":{
        "path":"/data/hisi_logs/",
        "pattern":"\\d{14}-\\d{8}/ap_log/bl31_mntn_memory.bin",
        "featureid":"040100051",
        "command":[
            {"name":"BasicParam", "source":"====ddr @&@ int parse begin====", "s_ddrSec":"====(ddr.*begin)===="},
            {"name":"DdrcParam", "depend":"BasicParam.s_ddrSec", "source":"not ddr error,", "s_error":"not ddr error"},
            {"name":"DdrcParam", "depend":"DdrcParam.s_error", "source":"@R@PORT is (\\d+)", "s_port":"PORT is (\\d+)"},
            {"name":"DdrcParam", "depend":"DdrcParam.s_error", "source":"operation", "s_op":"\\](.*) operation"},
            {"name":"DdrcParam", "depend":"DdrcParam.s_error", "source":"Master is", "s_master":"Master is (.*)"},
            {"name":"DdrcParam", "depend":"DdrcParam.s_error", "source":"Sub master is", "s_subMaster":"Sub master is (.*)"}
        ]
    },
    "file22":{
        "path":"/data/hisi_logs/",
        "pattern":"\\d{14}-\\d{8}/ap_log/fastboot_log",
        "featureid":"040100050",
        "command":[
            {"name":"BasicParam", "source":"reboot_reason: get_exception_info", "s_subType":"get_exception_info is (.*)"}
        ]
    },
    "file23":{
        "path":"/data/hisi_logs/",
        "pattern":"\\d{14}-\\d{8}/ap_log/dmesg-ramoops-0",
        "featureid":"040100091",
        "command":[
            {"name":"BasicParam", "source":"system_error@&@balong_modem", "s_pname":",cpu[0-9],(.*?)[,:\\]]"},
            {"name":"MainCallTrace", "depend":"BasicParam.s_pname", "source":",&@&BasicParam.s_pname", "s_trace":"&all_trace&[0-9a-zA-Z_]+\\+0x[0-9a-f]+/0x[0-9a-f]+"}
        ]
    },
    "file24":{
        "path":"/data/log/mtklog/mobilelog/APLog_0/last_kmsg",
        "pattern":"",
        "featureid":"020100020",
        "command":[
            {"name":"BasicParam", "source":"Unhandled fault:@|@Unable to handle kernel@|@kernel BUG at @|@BUG: failure at@|@Bad mode in @|@Internal error:@|@mali gpu: Unhandled Page@|@stp trace log:@|@Kernel panic - not syncing:", "s_f3":"\\[\\d+:\\w+.*\\]([a-zA-Z].*)"},
            {"name":"BasicParam", "depend":"BasicParam.s_f3", "source":"PC is at ", "s_f1":"PC is at ([^\\+ ]+.*)"},
            {"name":"BasicParam", "depend":"BasicParam.s_f3", "source":"LR is at ", "s_f2":"LR is at ([^\\+ ]+.*)"},
            {"name":"MainCallTrace", "depend":"BasicParam", "source":"Call trace:", "s_trace":"&all_trace&[0-9a-zA-Z_]+\\+0x[0-9a-f]+/0x[0-9a-f]+"}
        ]
    },
    "file25":{
        "path":"/data/vendor/log/mtklog/aee_exp/",
        "pattern":"\\d{14}-\\d{8}/last_kmsg",
        "featureid":"020100021",
        "command":[
            {"name":"BasicParam", "source":"Unhandled fault:@|@Unable to handle kernel@|@kernel BUG at @|@BUG: failure at@|@Bad mode in @|@Internal error:@|@mali gpu: Unhandled Page@|@stp trace log:@|@Kernel panic - not syncing:", "s_f3":"\\[\\d+:\\w+.*\\]([a-zA-Z].*)"},
            {"name":"BasicParam", "depend":"BasicParam.s_f3", "source":"PC is at ", "s_f1":"PC is at ([^\\+ ]+.*)"},
            {"name":"BasicParam", "depend":"BasicParam.s_f3", "source":"LR is at ", "s_f2":"LR is at ([^\\+ ]+.*)"},
            {"name":"MainCallTrace", "depend":"BasicParam", "source":"Call trace:", "s_trace":"&all_trace&[0-9a-zA-Z_]+\\+0x[0-9a-f]+/0x[0-9a-f]+"}
        ]
    },
    "file26":{
        "path":"/data/log/mtklog/mobilelog/APLog_0/pl_lk",
        "pattern":"",
        "featureid":"020100050",
        "command":[
            {"name":"BasicParam", "source":"[PMIC]PG_SDN_STS0", "s_pg_sdn_sts0":"\\[PMIC\\](PG_SDN_STS0.*)"},
            {"name":"BasicParam", "source":"[PMIC]PG_SDN_STS1", "s_pg_sdn_sts1":"\\[PMIC\\](PG_SDN_STS1.*)"},
            {"name":"BasicParam", "source":"[PMIC]OC_SDN_STS0", "s_oc_sdn_sts0":"\\[PMIC\\](OC_SDN_STS0.*)"},
            {"name":"BasicParam", "source":"[PMIC]OC_SDN_STS1", "s_oc_sdn_sts1":"\\[PMIC\\](OC_SDN_STS1.*)"}
        ]
    },
    "file27":{
        "path":"/data/vendor/log/mtklog/aee_exp/",
        "pattern":"\\d{14}-\\d{8}/ZZ_INTERNAL",
        "featureid":"020120000,020120020,020120050",
        "command":[
            {"name":"BasicParam", "source":"Fatal error", "s_fatal":"\\[(Fatal error\\(.*\\))\\]", "s_err_code1":"err_code1:(.*?) ", "s_err_code2":"err_code2:(.*?) ", "s_err_code3":"err_code3:(.*)"},
            {"name":"BasicParam", "source":"[ASSERT]", "s_assert":"(\\[ASSERT\\])", "s_assert_file":"/(\\w+.c line:\\d+)"},
            {"name":"BasicParam", "depend":"BasicParam.s_assert", "source":"p1", "s_p1":"p1:(0x\\w+)"},
            {"name":"BasicParam", "depend":"BasicParam.s_assert", "source":"p2", "s_p2":"p2:(0x\\w+)"},
            {"name":"BasicParam", "depend":"BasicParam.s_assert", "source":"p3", "s_p3":"p3:(0x\\w+)"},
            {"name":"BasicParam", "source":";CONSYS FW CORE.", "s_consys":".*(CONSYS FW CORE\\..*),\\w+ .*"}
        ]
    },
    "file28":{
        "path":"/data/vendor/log/reliability/dumplog/",
        "pattern":"\\d{14}-\\d{8}/last_kmsg",
        "featureid":"010100020",
        "command":[
            {"name":"BasicParam", "source":"Unhandled fault:@|@Unable to handle kernel@|@kernel BUG at@|@BUG: failure at@|@Bad mode in@|@DPM device timeout@|@invoked oom-killer@|@Synchronous External Abort:@|@,init]potentially unexpected fatal signal@|@Internal error:@|@NoC Error Probe:@|@mali gpu: Unhandled Page@|@CFI failure@|@Kernel panic - not syncing:", "s_pname":".*\\[\\d+:(.*?)\\][a-zA-Z].*", "s_cause":"\\(\\d+\\)([a-zA-Z].*)|\\(\\d+\\)\\[\\d+:.*?\\]([a-zA-Z].*)"},
            {"name":"BasicParam", "depend":"BasicParam.s_cause", "source":"pc : ", "s_f1":"pc : (.*)"},
            {"name":"BasicParam", "depend":"BasicParam.s_cause", "source":"lr : ", "s_f2":"lr : (.*)"}
        ]
    },
    "file29":{
        "path":"/data/log/modem_crash/modem_exception",
        "pattern":"",
        "featureid":"010120000",
        "command":[
            {"name":"BasicParam", "source":":", "s_f1":"@last@ (.*):", "s_f2":"@last@.*:(.*)"}
        ]
    },
    "file30":{
        "path":"/data/log/faultlog/",
        "pattern":"1025[78]-\\d{14}\\.log",
        "featureid":"070140060,070140050",
        "segmentType":"Double",
        "firstSeg":["BasicParam.s_process", "main"],
        "segStack":["^\\s+at\\s+|^\\s+-\\s\\w", "^\\s+at\\s+|^\\s+-\\s\\w"],
        "command":[
            {"name":"BasicParam", "source":"PID =", "s_pid":"PID = (\\S+)"},
            {"name":"BasicParam", "source":"UID =", "s_uid":"UID = (\\S+)"},
            {"name":"BasicParam", "source":"PackageName =", "s_package":"PackageName = (\\S+)"},
            {"name":"BasicParam", "source":"ProcessName =", "s_process":"ProcessName = (\\S+)"},
            {"name":"BasicParam", "source":"activityName =", "s_activity":"activityName = (\\S+)"},
            {"name":"BasicParam", "source":"versionName =", "s_version":"versionName = (\\S+)"},
            {"name":"BasicParam", "source":"Message 0: ", "s_massage":"&all_trace&Message \\d: \\{(.*)\\}"}
        ],
        "segment":[
            {"name":"DoubleCmd", "source":"----- pid ", "num":2, "s_id":"^----- pid (\\d+) at", "s_name":"^Cmd line: (.*)"},
            {"name":"SingleCmd", "source":" prio=@&@ tid=", "num":3, "s_id":"tid=(\\d+) ", "s_name":"^\"(.*)\" ", "s_sysTid":"sysTid=(\\d+) "}
        ]
    },
    "file31":{
        "path":"/data/log/dropbox/",
        "pattern":".*?(js_crash)@[0-9]{13}\\.txt(\\.gz)?",
        "featureid":"070110140",
        "command":[
            {"name":"BasicParam", "source":"Lifetime:", "s_lifeTime":"Lifetime: (.*)s"},
            {"name":"BasicParam", "source":"Ability: ", "s_ability":"Ability: (.*)"},
            {"name":"BasicParam", "source":"page: ", "s_page":"page: (.*)"},
            {"name":"BasicParam", "source":"Js-Engine: ", "s_vm":"Js-Engine: (.*)"},
            {"name":"BasicParam", "source":"Stacktrace: ", "s_error": "ReferenceError: (.*)", "s_trace":"&all_trace&at (.*)"}
        ]
    },
    "file32":{
        "path":"/data/log/faultlog/",
        "pattern":"10271-\\d{14}\\.log",
        "featureid":"070140051",
        "command":[
            {"name":"BasicParam", "source":"PID =", "s_pid":"PID = (\\S+)"},
            {"name":"BasicParam", "source":"UID =", "s_uid":"UID = (\\S+)"},
            {"name":"BasicParam", "source":"PackageName =", "s_package":"PackageName = (\\S+)"},
            {"name":"BasicParam", "source":"ProcessName =", "s_process":"ProcessName = (\\S+)"},
            {"name":"BasicParam", "source":"KeyMsg =", "s_block":"KeyMsg = Blocked in (.*) \\(", "s_thread":"KeyMsg = Blocked in.*\\((.*)\\)"},
            {"name":"BasicParam", "source":"----- pid &@&BasicParam.s_pid", "s_mainPid":"----- pid (.*) "},
            {"name":"BasicParam", "depend":"BasicParam.s_mainPid", "source":"\"&@&BasicParam.s_thread", "s_trace":"&all_trace&^\\s+at\\s+|^\\s+-\\s\\w"}
        ]
    },
    "file33":{
        "path":"/data/log/faultlog/",
        "pattern":"10021-\\d{14}\\.log",
        "featureid":"070140040",
        "command":[
            {"name":"BasicParam", "source":"PID =", "s_pid":"PID = (\\S+)"},
            {"name":"BasicParam", "source":"UID =", "s_uid":"UID = (\\S+)"},
            {"name":"BasicParam", "source":"KeyMsg =", "s_block":"KeyMsg = (.*)"},
            {"name":"BasicParam", "source":"InitProcessWatchdog_KernelStack@|@InitProcessWatchdog_UserStack", "s_thread":"\\](.*?) start"},
            {"name":"BasicParam", "depend":"BasicParam.s_thread", "source":"Call trace:", "s_trace":"&all_trace&\\w+\\+0x[0-9a-f]+/0x[0-9a-f]+"}
        ]
    },
    "file34":{
        "path":"/data/log/faultlog/",
        "pattern":"10001-\\d{14}\\.log",
        "featureid":"070140000",
        "segmentType":"Single",
        "firstSeg":["HungtaskParam.s_taskId"],
        "segStack":["\\w+\\+0x[0-9a-f]+/0x[0-9a-f]+", "Call trace:"],
        "command":[
            {"name":"BasicParam", "source":"PID =", "s_pid":"PID = (\\S+)"},
            {"name":"BasicParam", "source":"UID =", "s_uid":"UID = (\\S+)"},
            {"name":"HungtaskParam", "source":"KeyMsg =", "s_taskId":"KeyMsg = Task .* pid (\\d+) .*"}
        ],
        "segment":[
            {"name":"SingleCmd", "source":"khungtaskd@&@]hungtask:name=", "num":1, "s_id":",PID=(\\d+),", "s_name":"hungtask:name=(.*),PID="}
        ]
    },
    "file35":{
        "path":"/data/log/faultlog/",
        "pattern":"10294-\\d{14}\\.log",
        "featureid":"070140031",
        "command":[
            {"name":"BasicParam", "source":"timeout pid: ", "s_pid":"timeout pid: (.*)"},
            {"name":"BasicParam", "source":"timeout name:", "s_threadName":"timeout name: (.*)"},
            {"name":"BasicParam", "source":"----- pid ", "s_temp":"----- pid (.*)"},
            {"name":"BasicParam", "depend":"BasicParam.s_temp", "source":"Cmd line: ", "s_processName":"Cmd line: (.*)"},
            {"name":"CallTrace", "depend":"BasicParam.s_temp", "source":"\"&@&BasicParam.s_threadName", "s_calltrace":"&all_trace&^\\s+at\\s+|^\\s+-\\s\\w"}
        ]
    },
    "file36":{
        "path":"/data/hisi_logs/",
        "pattern":"\\d{14}-\\d{8}/ap_log/kernel_logbuff.bin",
        "featureid":"040100020",
        "segmentType":"Single",
        "firstSeg":["HungtaskParam.s_taskId"],
        "segStack":["\\w+\\+0x[0-9a-f]+/0x[0-9a-f]+", "Call trace:"],
        "command":[
            {"name":"HungtaskParam", "source":"blocked@&@is causing panic", "s_taskId":"[tT]ask.*:(\\d+).*is causing panic", "s_taskName":"[tT]ask (.*):.*is causing panic"}
        ],
        "segment":[
            {"name":"SingleCmd", "source":"khungtaskd@&@]hungtask:name=", "num":1, "s_id":",PID=(\\d+),", "s_name":"hungtask:name=(.*),PID="}
        ]
    },
    "file37":{
        "path":"/data/log/faultlog/",
        "pattern":"10030-\\d{14}\\.log",
        "featureid":"070140032",
        "segmentType":"Double",
        "firstSeg":["BasicParam.s_pid", "BasicParam.s_sysTid"],
        "segStack":["^\\s+at\\s+|^\\s+-\\s\\w", "^\\s+at\\s+|^\\s+-\\s\\w"],
        "command":[
            {"name":"BasicParam", "source":"LONG1", "s_pid":"= (.*)"},
            {"name":"BasicParam", "source":"timeout function:", "s_funcname":"timeout function: (.*)"},
            {"name":"BasicParam", "source":">>>@&@<<<", "s_process":">>> (.*) <<<"},
            {"name":"BasicParam", "source":"timeout tid:", "s_sysTid":"timeout tid: (.*)"}
        ],
        "segment":[
            {"name":"DoubleCmd", "source":"----- pid ", "num":2, "s_id":"^----- pid (\\d+) at", "s_name":"^Cmd line: (.*)"},
            {"name":"SingleCmd", "source":" prio=@&@ tid=", "num":3, "s_id":"tid=(\\d+) ", "s_name":"^\"(.*)\" ", "s_sysTid":"sysTid=(\\d+) "}
        ]
    },
    "file38":{
        "path":"/data/log/faultlog/",
        "pattern":"10289-\\d{14}\\.log",
        "featureid":"070140052",
        "segmentType":"Double",
        "firstSeg":["BasicParam.s_process", "main"],
        "segStack":["^\\s+at\\s+|^\\s+-\\s\\w", "^\\s+at\\s+|^\\s+-\\s\\w"],
        "command":[
            {"name":"BasicParam", "source":"PID =", "s_pid":"PID = (\\S+)"},
            {"name":"BasicParam", "source":"UID =", "s_uid":"UID = (\\S+)"},
            {"name":"BasicParam", "source":"PackageName =", "s_package":"PackageName = (\\S+)"},
            {"name":"BasicParam", "source":"ProcessName =", "s_process":"ProcessName = (\\S+)"},
            {"name":"BasicParam", "source":"KeyMsg =", "s_activity":"KeyMsg = (\\S+)"}
        ],
        "segment":[
            {"name":"DoubleCmd", "source":"----- pid ", "num":2, "s_id":"^----- pid (\\d+) at", "s_name":"^Cmd line: (.*)"},
            {"name":"SingleCmd", "source":" prio=@&@ tid=", "num":3, "s_id":"tid=(\\d+) ", "s_name":"^\"(.*)\" ", "s_sysTid":"sysTid=(\\d+) "}
        ]
    }
}
